<svg width="24" height="30" viewBox="0 0 24 30" fill="none" xmlns="http://www.w3.org/2000/svg">
<path d="M12 15C10.35 15 9 13.65 9 12C9 10.35 10.35 9 12 9C13.65 9 15 10.35 15 12C15 13.65 13.65 15 12 15ZM21 12.3C21 6.855 17.025 3 12 3C6.975 3 3 6.855 3 12.3C3 15.81 5.925 20.46 12 26.01C18.075 20.46 21 15.81 21 12.3ZM12 0C18.3 0 24 4.83 24 12.3C24 17.28 19.995 23.175 12 30C4.005 23.175 0 17.28 0 12.3C0 4.83 5.7 0 12 0Z" fill="white"/>
</svg>
