<?xml version="1.0" encoding="UTF-8"?>
<svg xmlns="http://www.w3.org/2000/svg" xmlns:xlink="http://www.w3.org/1999/xlink" width="16pt" height="16pt" viewBox="0 0 16 16" version="1.1">
<g id="surface1">
<path style=" stroke:none;fill-rule:nonzero;fill:rgb(100%,100%,100%);fill-opacity:1;" d="M 8 0 C 3.585938 0 0 3.585938 0 8 C 0 12.414062 3.585938 16 8 16 C 12.414062 16 16 12.414062 16 8 C 16 3.585938 12.414062 0 8 0 Z M 4.054688 13.023438 C 4.398438 12.304688 6.496094 11.601562 8 11.601562 C 9.503906 11.601562 11.609375 12.304688 11.945312 13.023438 C 10.855469 13.886719 9.488281 14.398438 8 14.398438 C 6.511719 14.398438 5.144531 13.886719 4.054688 13.023438 Z M 13.089844 11.863281 C 11.945312 10.472656 9.167969 10 8 10 C 6.832031 10 4.054688 10.472656 2.910156 11.863281 C 2.097656 10.792969 1.601562 9.457031 1.601562 8 C 1.601562 4.472656 4.472656 1.601562 8 1.601562 C 11.527344 1.601562 14.398438 4.472656 14.398438 8 C 14.398438 9.457031 13.902344 10.792969 13.089844 11.863281 Z M 8 3.199219 C 6.449219 3.199219 5.199219 4.449219 5.199219 6 C 5.199219 7.550781 6.449219 8.800781 8 8.800781 C 9.550781 8.800781 10.800781 7.550781 10.800781 6 C 10.800781 4.449219 9.550781 3.199219 8 3.199219 Z M 8 7.199219 C 7.335938 7.199219 6.800781 6.664062 6.800781 6 C 6.800781 5.335938 7.335938 4.800781 8 4.800781 C 8.664062 4.800781 9.199219 5.335938 9.199219 6 C 9.199219 6.664062 8.664062 7.199219 8 7.199219 Z M 8 7.199219 "/>
</g>
</svg>
