<svg width="42" height="42" viewBox="0 0 42 42" fill="none" xmlns="http://www.w3.org/2000/svg">
<path d="M36.0508 41C-0.514312 41 42.5143 41 5.94921 41C3.21607 40.9754 1.01231 38.747 1 36.0015C1 26.0046 1 15.9954 1 5.99846C1.01231 3.253 3.21607 1.02462 5.94921 1H9.69191H36.0508C38.7839 1.02462 40.9877 3.253 41 5.99846C41 15.9954 41 26.0046 41 36.0015C40.9754 38.7839 38.9686 40.9631 36.0508 41Z" fill="#E60000"/>
<path d="M36.0508 41C-0.514312 41 42.5143 41 5.94921 41C3.21607 40.9754 1.01231 38.747 1 36.0015C1 26.0046 1 15.9954 1 5.99846C1.01231 3.253 3.21607 1.02462 5.94921 1H9.69191H36.0508C38.7839 1.02462 40.9877 3.253 41 5.99846C41 15.9954 41 26.0046 41 36.0015C40.9754 38.7839 38.9686 40.9631 36.0508 41Z" stroke="white" stroke-width="1.4173" stroke-miterlimit="22.9256"/>
<path d="M18.704 33.7485C15.6507 29.3287 8.84246 21.3139 7.20504 16.611C6.848 15.5891 6.66333 14.5549 6.66333 13.4961C6.66333 11.5509 7.30353 9.92582 8.59623 8.60849C9.90125 7.30347 11.5017 6.63865 13.41 6.63865C16.4756 6.63865 20.0705 9.21175 21.0185 12.105C21.8803 9.16251 25.4383 6.62634 28.5039 6.62634C30.3999 6.62634 32.0004 7.26654 33.3054 8.58387C34.6227 9.88889 35.2752 11.4401 35.2752 13.2376C35.2752 14.8135 34.8936 16.4509 34.1179 18.1622C32.3205 22.1388 26.1893 29.8089 23.3823 33.7978C22.2497 35.4229 20.4891 36.3216 18.704 33.7485Z" stroke="white" stroke-width="2.0187" stroke-miterlimit="10"/>
</svg>
