{
  "store.custom#about-us": {
    "blocks": ["flex-layout.row#about-us-top"]
  },
  "flex-layout.row#about-us-top": {
    "children": [
      "flex-layout.col#text-about-us"
    ],
    "props": {
      "blockClass": "pg-institucional"
    }
  },
  "flex-layout.col#text-about-us": {
    "children": [
      "rich-text#about-title",
      "rich-text#about-content-top"
    ],
    "props": {
      "preventVerticalStretch": true
    }
  },
  "rich-text#about-title": {
    "props": {
      "textPosition": "CENTER",
      "text": "![Icon imgtitle](assets/svg/imgtitle.svg) Quem Somos",
      "blockClass": "titulosvitrine"
    }
  },
  "rich-text#about-content-top": {
    "props": {
      "textPosition": "LEFT",
      "text": "A Associação de Empresas de Comércio de Materiais de Construção de Minas Gerais teve inicio no dia 13 de julho de 2006. \n\n A Rede Construai, uma experiência bem sucedida de associativismo no Sul de Minas, conta hoje com 37 associados e 79 lojas, e tem por objetivo propiciar preços mais baixos, oferecer melhores condições de pagamento, variedade e qualidade em produtos, assim como gerar mais empregos, estabilidade para o trabalhador e crescimento para a região. A Rede visa também desenvolver soluções conjuntas para o crescimento das empresas associadas e garantir um melhor atendimento aos clientes, fornecedores e parceiros. \n\n Todo esse trabalho tem oferecido aos empresários, conquistas inestimáveis, como a troca de experiências, a ajuda mútua e o respeito e credibilidade num mercado consumidor cada vez mais exigente."
    }
  }
}