{
	"vtex.menu@2.x:menu#menu-departments": {
		"children": [
			"menu-item#porambiente",
			"menu-item#pisos",
			"menu-item#moveis",
			"menu-item#ofertas",
			"menu-item#lancamentos",
			"menu-item#nossaslojas",
			"menu-item#associado"
		]
	},
	"menu-item#porambiente": {
		"props": {
			"id": "menu-item-porambiente",
			"type": "custom",
			"highlight": false,
			"itemProps": {
				"type": "internal",
				"href": "#",
				"noFollow": false,
				"tagTitle": "Por Ambiente",
				"text": "Por Ambiente"
			}
		}
	},
	"menu-item#pisos": {
		"props": {
			"id": "menu-item-pisos",
			"type": "custom",
			"highlight": false,
			"itemProps": {
				"type": "internal",
				"href": "#",
				"noFollow": false,
				"tagTitle": "Pisos",
				"text": "Pisos"
			}
		}
	},
	"menu-item#moveis": {
		"props": {
			"id": "menu-item-moveis",
			"type": "custom",
			"highlight": false,
			"itemProps": {
				"type": "internal",
				"href": "#",
				"noFollow": false,
				"tagTitle": "Móveis",
				"text": "Móveis"
			}
		}
	},

	"menu-item#ofertas": {
		"props": {
			"id": "menu-item-ofertas",
			"type": "custom",
			"highlight": false,
			"itemProps": {
				"type": "internal",
				"href": "#",
				"noFollow": false,
				"tagTitle": "ofertas",
				"text": "ofertas"
			}
		}
	},
	
	"menu-item#lancamentos": {
		"props": {
			"id": "menu-item-lancamentos",
			"type": "custom",
			"highlight": false,
			"itemProps": {
				"type": "internal",
				"href": "/lancamentos",
				"noFollow": false,
				"tagTitle": "Lançamentos",
				"text": "Lançamentos"
			}
		}
	},
	"menu-item#nossaslojas": {
		"props": {
			"id": "menu-item-nossaslojas",
			"type": "custom",
			"highlight": false,
			"itemProps": {
				"type": "internal",
				"href": "#",
				"noFollow": false,
				"tagTitle": "Nossas Lojas",
				"text": "Nossas Lojas"
			}
		}
	},
	"menu-item#associado": {
		"props": {
			"id": "menu-item-associado",
			"blockClass":"menu-associado",
			"type": "custom",
			"highlight": false,
			"itemProps": {
				"type": "internal",
				"href": "/associado",
				"noFollow": false,
				"tagTitle": "Seja um associado",
				"text": "Seja um associado"
			},
			"iconProps": {
				"id": "hpa-telemarketing",
				"size": 25,
				"viewBox": "0 0 16 16",
				"activeClassName": "associado",
				"mutedClassName": "c-action-primary"
			  }
		}
	},
	
	"menu-item#all-departments": {
		"props": {
			"id": "menu-item-custom-categories",
			"type": "custom",
			"iconId": null,
			"highlight": true,
			"blockClass": "dropdown-departamentos",
			"itemProps": {
				"type": "internal",
				"href": "#",
				"noFollow": true,
				"tagTitle": "TODA A LOJA",
				"text": "TODA A LOJA"
			},
			"iconProps": {
				"id": "mpa-bars",
				"size": 16,
				"viewBox": "0 0 16 16",
				"activeClassName": "c-action-primary"
			}
		},
		"blocks": ["vtex.menu@2.x:submenu#categories"]
	},
	"vtex.menu@2.x:submenu#categories": {
		"children": ["category-menu#main-menu"]
	}
}
