{
  "product-summary.shelf#listLayout": {
    "props": {
      "blockClass": "listLayout"
    },
    "children": [
      "responsive-layout.desktop#productSummaryList",
      "responsive-layout.mobile#productSummaryList"
    ]
  },
  "responsive-layout.desktop#productSummaryList": {
    "children": [
      "flex-layout.row#summaryListDesktop"
    ]
  },
  "responsive-layout.mobile#productSummaryList": {
    "children": [
      "flex-layout.row#summaryListMobile"
    ]
  },
  "flex-layout.row#summaryListDesktop": {
    "props": {
      "blockClass": "summaryListDesktop",
      "preserveLayoutOnMobile": true
    },
    "children": [
      "stack-layout#summaryListDesktop",
      "flex-layout.col#summaryDetailsListDesktop"
    ]
  },
  "flex-layout.col#summaryDetailsListDesktop": {
    "props": {
      "preventVerticalStretch": true,
      "width":"70%"
    },
    "children": [
      "product-summary-name#summaryListDesktop",
      "product-summary-space",
      "product-list-price",
      "product-installments",
      "product-selling-price",
      "add-to-cart-button"
    ]
  },
  "product-summary-name#summaryListDesktop": {
    "props": {
      "blockClass": "summaryListDesktop"
    }
  },
  
  "stack-layout#summaryListDesktop": {
    "children": [
      "product-summary-image#summaryListDesktop"
    ],
    "props": {
      "width": "30%"
    }
  },
  "product-summary-image#summaryListDesktop": {
    "props": {
      "showBadge": false,
      "aspectRatio": "1:1",
      "maxHeight": 180,
      "blockClass": "summaryListDesktop"
    }
  },
  "flex-layout.row#summaryListMobile": {
    "props":{
      "preserveLayoutOnMobile": true,
      "colSizing": "auto",
      "blockClass": "summaryListMobile",
      "colGap": 5
    },
    "children": [
      "stack-layout#summaryListMobile",
      "flex-layout.col#summaryDetailsListMobile"
    ]
  },
  "stack-layout#summaryListMobile": {
    "children": [
      "product-summary-image#summaryListMobile"
    ]
  },
  "product-summary-image#summaryListMobile": {
    "props": {
      "showBadge": false,
      "aspectRatio": "1:1",
      "maxHeight": 220,
      "blockClass": "summaryListMobile"
    }
  },
  "flex-layout.col#summaryDetailsListMobile": {
    "props": {
      "preventVerticalStretch": true,
      "width": "grow",
      "blockClass": "summaryDetailsListMobile"
    },
    "children": [
      "flex-layout.col#summaryUpDetailsListMobile",
      "flex-layout.col#summaryDownDetailsListMobile"
    ]
  },
  "flex-layout.col#summaryUpDetailsListMobile": {
    "props": {
      "preventVerticalStretch": true,
      "blockClass": "summaryUpDetailsListMobile"
    },
    "children": [
      "vtex.store-components:product-brand#summaryListMobile",
      "product-summary-name#summaryListMobile",
      "product-rating-inline"
    ]
  },
  "flex-layout.col#summaryDownDetailsListMobile": {
    "props": {
      "preventVerticalStretch": true
    },
    "children": [
      "product-selling-price#summary",
      "product-installments#summary"
    ]
  },
  "vtex.store-components:product-brand#summaryListMobile": {
    "props": {
      "displayMode": "text",
      "blockClass": "summaryListMobile"
    }
  },
  "product-summary-name#summaryListMobile": {
    "props": {
      "tag": "div",
      "blockClass": "summaryListMobile"
    }
  }
}
